{
  "permissions": {
    "api": {
      "wallets": [
        "Query",
        "Mutation"
      ]
    }
  },
  "lambdaLayers": [
    {
      "type": "ProjectLayer",
      "resourceName": "chaintrackerwalletLibrary",
      "env": "dev",
      "version": "Always choose latest version",
      "isLatestVersionSelected": true
    }
  ]
}